{
	"info": {
		"_postman_id": "3aaec91b-5a12-43c7-943d-404532bfaf7e",
		"name": "login and registration",
		"schema": "https://schema.getpostman.com/json/collection/v2.1.0/collection.json"
	},
	"item": [
		{
			"name": "login",
			"request": {
				"method": "GET",
				"header": [
					{
						"key": "login",
						"value": "bondarenko@rambler.ru",
						"type": "text"
					},
					{
						"key": "password",
						"value": "d1I5m6A3",
						"type": "text"
					}
				],
				"url": {
					"raw": "http://localhost:8080/login",
					"protocol": "http",
					"host": [
						"localhost"
					],
					"port": "8080",
					"path": [
						"login"
					]
				}
			},
			"response": []
		},
		{
			"name": "registration",
			"request": {
				"method": "POST",
				"header": [
					{
						"key": "login",
						"value": "bondarenko@rambler.ru",
						"type": "text"
					},
					{
						"key": "password",
						"value": "d1I5m6A3",
						"type": "text"
					}
				],
				"body": {
					"mode": "raw",
					"raw": "{\n\t\"nickname\":\"bad_boy\",\n\t\"name\":\"Dima\",\n\t\"surname\":\"Bondarenko\"\n}",
					"options": {
						"raw": {
							"language": "json"
						}
					}
				},
				"url": {
					"raw": "http://localhost:8080/registration",
					"protocol": "http",
					"host": [
						"localhost"
					],
					"port": "8080",
					"path": [
						"registration"
					]
				}
			},
			"response": []
		}
	],
	"protocolProfileBehavior": {}
}